…
``` r
km_df <- duration_df %>% 
  mutate(
    qb = lubridate::floor_date(date_start, "quarter"),
    qb = gsub("-01$", "", qb),
    qe = lubridate::ceiling_date(date_start, "quarter"),
    qe = gsub("-01$", "", qe),
    q = str_c(qb, " - ", qe),
    sold = date_end < "2022-03-01"
  )

km_df
```

    ## # A tibble: 530,850 × 8
    ##    id       date_start date_end   duration qb      qe      q               sold 
    ##    <chr>    <date>     <date>        <dbl> <chr>   <chr>   <chr>           <lgl>
    ##  1 10126621 2021-07-06 2021-07-13        7 2021-07 2021-10 2021-07 - 2021… TRUE 
    ##  2 12294919 2021-12-29 2022-01-11       13 2021-10 2022-01 2021-10 - 2022… TRUE 
    ##  3 12320330 2021-07-27 2021-10-25       90 2021-07 2021-10 2021-07 - 2021… TRUE 
    ##  4 12413210 2021-10-02 2022-01-11      101 2021-10 2022-01 2021-10 - 2022… TRUE 
    ##  5 12499044 2021-05-28 2022-02-24      272 2021-04 2021-07 2021-04 - 2021… TRUE 
    ##  6 12509167 2021-05-25 2021-09-01       99 2021-04 2021-07 2021-04 - 2021… TRUE 
    ##  7 12682244 2021-05-29 2021-11-02      157 2021-04 2021-07 2021-04 - 2021… TRUE 
    ##  8 12808858 2021-08-13 2021-11-05       84 2021-07 2021-10 2021-07 - 2021… TRUE 
    ##  9 12838591 2021-05-23 2022-01-17      239 2021-04 2021-07 2021-04 - 2021… TRUE 
    ## 10 12892086 2021-09-13 2022-01-21      130 2021-07 2021-10 2021-07 - 2021… TRUE 
    ## # … with 530,840 more rows
…
coef_1se %>% 
  pull(term) %>% 
  select(.data = total_surv_df, duration, sold) %>% 
  sample_n(1000) %>% 
  predict_quantile_prob(.fit = fit_cox)
```

    ## Joining, by = "id"

    ## # A tibble: 1,000 × 59
    ##    evjarat allapot   sebessegvalto_fokozatszam nyari_gumi_meret2 ajtok_szama
    ##      <int> <fct>                         <int>             <int> <fct>      
    ##  1    2000 Normál                            5                70 3          
    ##  2    2018 Megkímélt                         0                55 5          
    ##  3    2012 Megkímélt                         6                55 5          
    ##  4    2010 Megkímélt                         5                60 5          
    ##  5    2017 Kitűnő                            5                55 5          
    ##  6    2010 Normál                            5                54 5          
    ##  7    2009 Megkímélt                         6                50 5          
    ##  8    2004 Normál                            5                70 5          
    ##  9    2019 Normál                            0                41 5          
    ## 10    2014 Megkímélt                         0                70 5          
    ## # … with 990 more rows, and 54 more variables: henger_elrendezes <fct>,
    ## #   pluss_karpit <lgl>, fuggonylegzsak <lgl>, allithato_kormany <lgl>,
    ## #   savtarto_rendszer <lgl>, tabla_felismero_funkcio <lgl>,
    ## #   fekasszisztens <lgl>, riaszto <lgl>, sebessegfuggo_szervokormany <lgl>,
    ## #   elektromosan_behajthato_kulso_tukrok <lgl>, futheto_tukor <lgl>,
    ## #   defektjavito_keszlet <lgl>, autobeszamitas_lehetseges <lgl>,
    ## #   elso_forgalomba_helyezes_magyarorszagon <lgl>, garancialis <lgl>, …
…
